EditAction 1639569722322 Game.java 2156 8 6 0
EditAction 1639569722407 Game.java 2156 8 6 0
EditAction 1639569722543 Game.java 2156 8 6 0
EditAction 1639569724095 Game.java 2156 8 6 0
EditAction 1639569724278 Game.java 2156 8 6 0
EditAction 1639569724796 Game.java 2156 8 6 0
EditAction 1639569724825 Game.java 2156 8 6 0
EditAction 1639569725199 Game.java 2156 8 6 0
EditAction 1639569725241 Game.java 2156 8 6 0
EditAction 1639569727307 Game.java 2156 8 6 0
EditAction 1639569727351 Game.java 2156 8 6 0
EditAction 1639569727490 Game.java 2156 8 6 0
CodeEditingAction 1639569773222 Game.java CHANGE Game.java CLASS
EditAction 1639569773247 Game.java 2211 8 6 0
CodeEditingAction 1639569967922 Game.java CHANGE Game.java CLASS
EditAction 1639569968195 Game.java 2217 8 6 0
CodeEditingAction 1639569970915 Game.java CHANGE Game.java CLASS
EditAction 1639569971154 Game.java 2211 8 6 0
EditAction 1639569979207 Game.java 2211 8 6 0
EditAction 1639569979251 Game.java 2211 8 6 0
EditAction 1639569979427 Game.java 2211 8 6 0
CodeEditingAction 1639570063849 Game.java CHANGE Game.java CLASS
EditAction 1639570063861 Game.java 2179 8 6 0
EditAction 1639570064176 Game.java 2179 8 6 0
CodeEditingAction 1639570066790 Game.java CHANGE Game.java CLASS
EditAction 1639570066804 Game.java 2173 8 6 0
EditAction 1639570067111 Game.java 2173 8 6 0
CodeEditingAction 1639570077406 Game.java CHANGE Game.java CLASS
EditAction 1639570077634 Game.java 2247 8 6 0
